{
  "project_info": {
    "project_number": "489843861942",
    "firebase_url": "https://litduel-d4a1e.firebaseio.com",
    "project_id": "litduel-d4a1e",
    "storage_bucket": "litduel-d4a1e.appspot.com"
  },
  "client": [
    {
      "client_info": {
        "mobilesdk_app_id": "1:489843861942:android:80a5612d23a6e22a",
        "android_client_info": {
          "package_name": "all.trends.litduel"
        }
      },
      "oauth_client": [
        {
          "client_id": "489843861942-3u8nv8qplnhjlq4p4rh9rpt7t9pqif3c.apps.googleusercontent.com",
          "client_type": 1,
          "android_info": {
            "package_name": "all.trends.litduel",
            "certificate_hash": "24976c2919ea2e80c7d96583522c12dad6181429"
          }
        },
        {
          "client_id": "489843861942-4196en3a4fe14j5ru18qafb3tcs8begt.apps.googleusercontent.com",
          "client_type": 1,
          "android_info": {
            "package_name": "all.trends.litduel",
            "certificate_hash": "71ae14be9d5e00edd2f5e1ada9098cd0a091c26e"
          }
        },
        {
          "client_id": "489843861942-cv5fooa5tle3bkmujvg6fcrnaop8en7i.apps.googleusercontent.com",
          "client_type": 3
        }
      ],
      "api_key": [
        {
          "current_key": "AIzaSyDhqfGR3XBMLBwrK33w1AZGmVefajZ8gTM"
        }
      ],
      "services": {
        "analytics_service": {
          "status": 1
        },
        "appinvite_service": {
          "status": 2,
          "other_platform_oauth_client": [
            {
              "client_id": "489843861942-cv5fooa5tle3bkmujvg6fcrnaop8en7i.apps.googleusercontent.com",
              "client_type": 3
            }
          ]
        },
        "ads_service": {
          "status": 2
        }
      }
    }
  ],
  "configuration_version": "1"
}